Chapter 3 - Reading and tidying data | INFO 6270 - Introduction to Data Science
…
## # A tibble: 1 x 1
##   response          
##   <named list>      
## 1 <named list [342]>

At the moment it has only one column called “response” of the “named_list” type, containing a single cell with 342 named list. This is a nested structure, where a single cell contains a list that contains other lists that contain other lists.

unnest_longer()

So, let’s unnest the data in the response column using the unnest_longer() function. This function makes the tibble longer by expaning it vertically (adding rows) with the unnested data.

public_housing = unnest_longer(public_housing, response)
public_housing

## # A tibble: 342 x 2
##    response          response_id
##    <named list>      <chr>      
##  1 <named list [22]> row        
##  2 <named list [22]> row        
##  3 <named list [21]> row        
##  4 <named list [22]> row        
##  5 <named list [22]> row        
##  6 <named list [21]> row        
##  7 <named list [22]> row        
##  8 <named list [22]> row        
##  9 <named list [22]> row        
## 10 <named list [22]> row        
## # ... with 332 more rows

Now we’re making progress. We have 342 observations each occupying one line. This is one of the tidy criteria! However, the columns are not right. We can see that there are two columns. The first one appears to contain 342 list of 22 elements, which are probably the 22 variables that we want as our columns.

unnest_wider()

Let’s unnest these 342 lists using the unnest_wider() function. This function makes the tibble wider by expaning it horizontally (adding columns) with the unnested data.

public_housing = unnest_wider(public_housing, response)
public_housing

## # A tibble: 342 x 22
##    id    property_project pid   name  address city  postal_code number_of_floors
##    <lis> <list>           <lis> <lis> <list>  <lis> <list>      <list>          
##  1 <lis~ <list [1]>       <lis~ <lis~ <list ~ <lis~ <list [1]>  <list [1]>      
##  2 <lis~ <list [1]>       <lis~ <lis~ <list ~ <lis~ <list [1]>  <list [1]>      
##  3 <lis~ <list [1]>       <lis~ <lis~ <list ~ <lis~ <NULL>      <list [1]>      
##  4 <lis~ <list [1]>       <lis~ <lis~ <list ~ <lis~ <list [1]>  <list [1]>      
##  5 <lis~ <list [1]>       <lis~ <lis~ <list ~ <lis~ <list [1]>  <list [1]>      
##  6 <lis~ <list [1]>       <lis~ <lis~ <NULL>  <lis~ <list [1]>  <list [1]>      
##  7 <lis~ <list [1]>       <lis~ <lis~ <list ~ <lis~ <list [1]>  <list [1]>      
##  8 <lis~ <list [1]>       <lis~ <lis~ <list ~ <lis~ <list [1]>  <list [1]>      
##  9 <lis~ <list [1]>       <lis~ <lis~ <list ~ <lis~ <list [1]>  <list [1]>      
## 10 <lis~ <list [1]>       <lis~ <lis~ <list ~ <lis~ <list [1]>  <list [1]>      
## # ... with 332 more rows, and 14 more variables: residential_units <list>,
## #   housing_authority <list>, county <list>, elevator <list>, oil_heat <list>,
## #   electric_heat <list>, public_water <list>, well <list>, sewer <list>,
## #   onsite_septic <list>, municipality <list>, x_coordina <list>,
## #   y_coordina <list>, response_id <chr>
…
Now let’s unnest the data contained in each cell with the unnest() function.

public_housing = unnest(public_housing, c(id, property_project, pid, name, address, city,
    postal_code, number_of_floors, residential_units, housing_authority, county, 
    elevator, oil_heat, electric_heat, public_water, well, sewer, 
    onsite_septic, municipality, x_coordina, y_coordina))

This seems silly… there has to be a leaner way of writing this. Yes, there is. The names() returns a vector of the column names of a data frame. So we can use this much leaner code:

colnames = names(public_housing)
public_housing = unnest(public_housing, colnames)
public_housing

## # A tibble: 342 x 22
##    id    property_project pid   name  address city  postal_code number_of_floors
##    <lis> <list>           <lis> <lis> <list>  <lis> <list>      <list>          
##  1 <chr~ <chr [1]>        <chr~ <chr~ <chr [~ <chr~ <chr [1]>   <chr [1]>       
##  2 <chr~ <chr [1]>        <chr~ <chr~ <chr [~ <chr~ <chr [1]>   <chr [1]>       
##  3 <chr~ <chr [1]>        <chr~ <chr~ <chr [~ <chr~ <NULL>      <chr [1]>       
##  4 <chr~ <chr [1]>        <chr~ <chr~ <chr [~ <chr~ <chr [1]>   <chr [1]>       
##  5 <chr~ <chr [1]>        <chr~ <chr~ <chr [~ <chr~ <chr [1]>   <chr [1]>       
##  6 <chr~ <chr [1]>        <chr~ <chr~ <NULL>  <chr~ <chr [1]>   <chr [1]>       
##  7 <chr~ <chr [1]>        <chr~ <chr~ <chr [~ <chr~ <chr [1]>   <chr [1]>       
##  8 <chr~ <chr [1]>        <chr~ <chr~ <chr [~ <chr~ <chr [1]>   <chr [1]>       
##  9 <chr~ <chr [1]>        <chr~ <chr~ <chr [~ <chr~ <chr [1]>   <chr [1]>       
## 10 <chr~ <chr [1]>        <chr~ <chr~ <chr [~ <chr~ <chr [1]>   <chr [1]>       
## # ... with 332 more rows, and 14 more variables: residential_units <list>,
## #   housing_authority <list>, county <list>, elevator <list>, oil_heat <list>,
## #   electric_heat <list>, public_water <list>, well <list>, sewer <list>,
## #   onsite_septic <list>, municipality <list>, x_coordina <list>,
## #   y_coordina <list>, response_id <chr>

We now have a tibble with 342 observation of 22 variables. Looks good! But the values in the cells still don’t look right. There’s just one more round of unnesting to apply to all the cell using the same code as in the last step.

public_housing = unnest(public_housing, colnames)
public_housing

## # A tibble: 342 x 22
##    id    property_project pid   name  address city  postal_code number_of_floors
##    <chr> <chr>            <chr> <chr> <chr>   <chr> <chr>       <chr>           
##  1 117   330101X          6503~ Rive~ 19/27/~ Pict~ B0K 1S0     2               
##  2 324   200214X          5006~ Bell~ 10 Gra~ Gran~ B0E 1L0     2               
##  3 247   100215X          1511~ Sydn~ 77 Ain~ Sydn~ <NA>        1               
##  4 337   390201X          2522~ Elgi~ 22 Elg~ Spri~ B0M 1X0     1               
##  5 224   100201X          1513~ Will~ 10 Wil~ Sydn~ B1N 1R4     2               
##  6 289   150226X          1524~ 198 ~ <NA>    Flor~ B0C 1J0     2               
##  7 214   612301           9021~ Trin~ 3 Trin~ Yarm~ B5A 1P3     2               
##  8 143   350801           2017~ Youn~ 130 Yo~ Truro B2N 3X4     2               
##  9 104   740101           6018~ Ritc~ 3809 H~ Rive~ B0J 2W0     2               
## 10 174   430901           4017~ Dr. ~ 3792 N~ Hali~ B3K 3G5     9               
## # ... with 332 more rows, and 14 more variables: residential_units <chr>,
## #   housing_authority <chr>, county <chr>, elevator <chr>, oil_heat <chr>,
## #   electric_heat <chr>, public_water <chr>, well <chr>, sewer <chr>,
## #   onsite_septic <chr>, municipality <chr>, x_coordina <chr>,
## #   y_coordina <chr>, response_id <chr>

Wow. Now it looks really good! But wait… there’s one more thing. Look at the data types of the columns. They are all characters, which doesn’t seem right because some of our columns appear to contain only numerical data. The readr package comes to the rescue with its easy to use type_convert() function.

public_housing = type_convert(public_housing)
public_housing

## # A tibble: 342 x 22
##       id property_project      pid name          address      city   postal_code
##    <dbl> <chr>               <dbl> <chr>         <chr>        <chr>  <chr>      
##  1   117 330101X          65032708 Riverton Hei~ 19/27/29 Ri~ Picto~ B0K 1S0    
##  2   324 200214X          50067362 Bellevue      10 Grand Et~ Grand~ B0E 1L0    
##  3   247 100215X          15113962 Sydney Senio~ 77 Ainsley ~ Sydney <NA>       
##  4   337 390201X          25227687 Elgin Street~ 22 Elgin St~ Sprin~ B0M 1X0    
##  5   224 100201X          15130651 William Stre~ 10 William ~ Sydney B1N 1R4    
##  6   289 150226X          15242738 198 Pitt Str~ <NA>         Flore~ B0C 1J0    
##  7   214 612301           90212812 Trinity Place 3 Trinity P~ Yarmo~ B5A 1P3    
##  8   143 350801           20178653 Young St. Lo~ 130 Young S~ Truro  B2N 3X4    
##  9   104 740101           60187283 Ritcey's Cov~ 3809 Hwy. 3~ River~ B0J 2W0    
## 10   174 430901           40177982 Dr. Prince M~ 3792 Novale~ Halif~ B3K 3G5    
## # ... with 332 more rows, and 15 more variables: number_of_floors <dbl>,
## #   residential_units <dbl>, housing_authority <chr>, county <chr>,
## #   elevator <chr>, oil_heat <chr>, electric_heat <chr>, public_water <chr>,
## #   well <chr>, sewer <chr>, onsite_septic <chr>, municipality <chr>,
## #   x_coordina <dbl>, y_coordina <dbl>, response_id <chr>
…
