Chapter 8 - Text mining | INFO 6270 - Introduction to Data Science
…
abstracts_topic <- tidy(abstracts_lda, matrix = "gamma")

abstracts_topic %>% 
  arrange(document, topic, desc(gamma))  

## # A tibble: 2,028 x 3
##    document topic     gamma
##    <chr>    <int>     <dbl>
##  1 1            1 0.999    
##  2 1            2 0.000180 
##  3 1            3 0.000180 
##  4 1            4 0.000180 
##  5 10           1 0.0000967
##  6 10           2 0.0000967
##  7 10           3 0.0000967
##  8 10           4 1.00     
##  9 100          1 0.000447 
## 10 100          2 0.999    
## # ... with 2,018 more rows
…
